<svg width="24" height="26" viewBox="0 0 24 26" version="1.1" xmlns="http://www.w3.org/2000/svg" xmlns:xlink="http://www.w3.org/1999/xlink">
	<g transform="translate(817 -3497)">
		<use xlink:href="#path0_stroke_download" transform="translate(-816 3516)"/>
		<use xlink:href="#path1_stroke_download" transform="translate(-810 3510)"/>
		<use xlink:href="#path2_stroke_download" transform="translate(-805.2 3498)"/>
	</g>
	<defs>
		<path id="path0_stroke_download" d="M 0.5 0C 0.5 -0.276142 0.276142 -0.5 0 -0.5C -0.276142 -0.5 -0.5 -0.276142 -0.5 0L 0.5 0ZM 0 3.6L -0.5 3.6L 0 3.6ZM 22.1 0C 22.1 -0.276142 21.8761 -0.5 21.6 -0.5C 21.3239 -0.5 21.1 -0.276142 21.1 0L 22.1 0ZM -0.5 0L -0.5 3.6L 0.5 3.6L 0.5 0L -0.5 0ZM -0.5 3.6C -0.5 4.36913 -0.194465 5.10675 0.34939 5.65061L 1.0565 4.9435C 0.700178 4.58718 0.5 4.10391 0.5 3.6L -0.5 3.6ZM 0.34939 5.65061C 0.893246 6.19446 1.63087 6.5 2.4 6.5L 2.4 5.5C 1.89609 5.5 1.41282 5.29982 1.0565 4.9435L 0.34939 5.65061ZM 2.4 6.5L 19.2 6.5L 19.2 5.5L 2.4 5.5L 2.4 6.5ZM 19.2 6.5C 19.9691 6.5 20.7068 6.19446 21.2506 5.65061L 20.5435 4.9435C 20.1872 5.29982 19.7039 5.5 19.2 5.5L 19.2 6.5ZM 21.2506 5.65061C 21.7945 5.10675 22.1 4.36913 22.1 3.6L 21.1 3.6C 21.1 4.10391 20.8998 4.58718 20.5435 4.9435L 21.2506 5.65061ZM 22.1 3.6L 22.1 0L 21.1 0L 21.1 3.6L 22.1 3.6Z"/>
		<path id="path1_stroke_download" d="M 0.353553 -0.353553C 0.158291 -0.548816 -0.158291 -0.548816 -0.353553 -0.353553C -0.548816 -0.158291 -0.548816 0.158291 -0.353553 0.353553L 0.353553 -0.353553ZM 4.8 4.8L 4.44645 5.15355C 4.64171 5.34882 4.95829 5.34882 5.15355 5.15355L 4.8 4.8ZM 9.95355 0.353553C 10.1488 0.158291 10.1488 -0.158291 9.95355 -0.353553C 9.75829 -0.548816 9.44171 -0.548816 9.24645 -0.353553L 9.95355 0.353553ZM -0.353553 0.353553L 4.44645 5.15355L 5.15355 4.44645L 0.353553 -0.353553L -0.353553 0.353553ZM 5.15355 5.15355L 9.95355 0.353553L 9.24645 -0.353553L 4.44645 4.44645L 5.15355 5.15355Z"/>
		<path id="path2_stroke_download" d="M 0.5 0C 0.5 -0.276142 0.276142 -0.5 0 -0.5C -0.276142 -0.5 -0.5 -0.276142 -0.5 0L 0.5 0ZM -0.5 16.8C -0.5 17.0761 -0.276142 17.3 0 17.3C 0.276142 17.3 0.5 17.0761 0.5 16.8L -0.5 16.8ZM -0.5 0L -0.5 16.8L 0.5 16.8L 0.5 0L -0.5 0Z"/>
	</defs>
</svg>
