<svg width="130" height="34" viewBox="0 0 130 34" version="1.1" xmlns="http://www.w3.org/2000/svg">
<g fill="none">
<g>
<g>
<g>
<g>
<path d="M 0.00522992 8.48708C -0.0345055 7.36754 0.152504 6.25143 0.555262 5.2044C 0.95802 4.15738 1.56839 3.20056 2.35049 2.39023C 3.10746 1.60352 4.02425 0.984203 5.04057 0.573012C 6.05688 0.161821 7.1497 -0.0319292 8.24716 0.00450352C 10.1513 -0.0577491 12.0195 0.526956 13.5408 1.66126C 14.2593 2.21576 14.86 2.90514 15.3085 3.68984C 15.7569 4.47453 16.0443 5.33909 16.154 6.2339L 13.2057 6.2339C 12.9642 5.15453 12.3477 4.19307 11.4635 3.51682C 10.5281 2.85716 9.39446 2.53015 8.24716 2.58904C 7.52987 2.54711 6.81243 2.66872 6.1502 2.94448C 5.48797 3.22025 4.89866 3.6428 4.42773 4.17952C 3.46198 5.40752 2.96385 6.93239 3.02057 8.48708C 2.94947 10.0235 3.45008 11.5323 4.42773 12.7284C 4.91396 13.2461 5.50597 13.6557 6.16446 13.9299C 6.82296 14.2041 7.5329 14.3367 8.24716 14.3189C 9.3905 14.3461 10.5142 14.0219 11.4635 13.3911C 12.3403 12.7081 12.9549 11.7495 13.2057 10.674L 16.154 10.674C 15.8927 12.4681 14.9601 14.0999 13.5408 15.2466C 12.0244 16.3903 10.1527 16.976 8.24716 16.9034C 7.1489 16.9463 6.05413 16.7554 5.03685 16.3439C 4.01957 15.9323 3.10348 15.3095 2.35049 14.5177C 0.798677 12.8898 -0.0436856 10.7238 0.00522992 8.48708L 0.00522992 8.48708Z" transform="translate(0 0.595459)" fill="white"/>
<path d="M 6.23404 12.4641C 5.40277 12.4778 4.57715 12.3266 3.80603 12.0192C 3.0349 11.7119 2.33392 11.2548 1.74454 10.6748C 0.600775 9.47599 -0.0243636 7.88279 0.00234105 6.23473C -0.0203484 5.41726 0.122047 4.60351 0.421193 3.84112C 0.720339 3.07872 1.17023 2.38299 1.74454 1.79463C 2.32068 1.19716 3.01933 0.72841 3.79363 0.419812C 4.56794 0.111213 5.4 -0.0301027 6.23404 0.00533938C 7.93094 -0.0100217 9.56649 0.632241 10.7906 1.79463C 11.3699 2.37944 11.823 3.07456 12.1225 3.83781C 12.422 4.60106 12.5616 5.41653 12.5327 6.23473C 12.5554 7.05221 12.413 7.86596 12.1139 8.62835C 11.8148 9.39075 11.3649 10.0865 10.7906 10.6748C 9.56649 11.8372 7.93094 12.4795 6.23404 12.4641ZM 2.68264 6.16846C 2.65293 7.17673 2.98529 8.16282 3.62075 8.95181C 3.93658 9.28517 4.32184 9.54671 4.74991 9.71834C 5.17798 9.88997 5.63864 9.9676 6.10003 9.94586C 6.56016 9.95749 7.01778 9.87522 7.44434 9.70419C 7.8709 9.53317 8.25726 9.27705 8.5793 8.95181C 9.25247 8.18356 9.58987 7.18252 9.51741 6.16846C 9.55857 5.15856 9.22491 4.16862 8.5793 3.38512C 8.26348 3.05176 7.87821 2.79022 7.45014 2.61859C 7.02207 2.44696 6.56141 2.36933 6.10003 2.39107C 5.63989 2.37944 5.18228 2.46171 4.75571 2.63273C 4.32915 2.80376 3.9428 3.05988 3.62075 3.38512C 3.02387 4.19429 2.69604 5.16694 2.68264 6.16846L 2.68264 6.16846Z" transform="translate(17.9612 5.10107)" fill="white"/>
<path d="M 1.02245e-06 7.82344L 1.02245e-06 5.37145L 4.55651 5.37145L 4.55651 17.3001L 1.7422 17.3001L 1.7422 7.82344L 1.02245e-06 7.82344ZM 3.08235 3.38334C 2.84971 3.39268 2.61749 3.35652 2.39902 3.27691C 2.18054 3.19731 1.98011 3.07583 1.8092 2.91945C 1.65207 2.76335 1.52929 2.5768 1.44857 2.37152C 1.36785 2.16624 1.33094 1.94666 1.34015 1.72659C 1.3307 1.49651 1.36727 1.26685 1.44776 1.05078C 1.52826 0.834708 1.65108 0.636478 1.8092 0.467455C 1.97672 0.306251 2.17662 0.181655 2.39594 0.101742C 2.61526 0.0218282 2.84912 -0.0116203 3.08235 0.00356394C 3.30487 -0.00554725 3.52689 0.0309606 3.73445 0.110793C 3.94202 0.190625 4.13065 0.312057 4.28848 0.467455C 4.45148 0.633132 4.57746 0.83083 4.65826 1.04774C 4.73907 1.26465 4.77289 1.49593 4.75753 1.72659C 4.76675 1.94666 4.72983 2.16624 4.64911 2.37152C 4.56839 2.5768 4.44561 2.76335 4.28848 2.91945C 4.08746 3.2508 3.68541 3.38334 3.08235 3.38334Z" transform="translate(31.7668 0)" fill="white"/>
<path d="M 2.54629 0.276147L 2.54629 1.86663C 2.86754 1.31608 3.32976 0.85894 3.88644 0.541228C 4.6021 0.149576 5.41506 -0.0341992 6.2317 0.0110663C 6.83919 -0.0334064 7.44906 0.056525 8.017 0.274325C 8.58495 0.492125 9.0967 0.832324 9.51507 1.2702C 10.3447 2.19969 10.7771 3.41139 10.7212 4.64998L 10.7212 12.1385L 7.90689 12.1385L 7.90689 5.0476C 7.97413 4.34284 7.78397 3.63756 7.37083 3.05949C 7.15712 2.81313 6.88859 2.61909 6.58631 2.49261C 6.28404 2.36613 5.95623 2.31065 5.62863 2.33052C 5.24499 2.30804 4.86094 2.36742 4.50253 2.50463C 4.14413 2.64184 3.81975 2.85367 3.5514 3.12576C 3.05193 3.71981 2.78972 4.4742 2.81432 5.24641L 2.81432 12.1385L -1.02245e-06 12.1385L -1.02245e-06 0.276147L 2.54629 0.276147Z" transform="translate(39.6067 5.09521)" fill="white"/>
<path d="M 2.61329 0L 7.77287 6.82583L 13.0665 0L 15.5457 0L 15.5457 16.3025L 12.7314 16.3025L 12.7314 4.37383L 7.77287 10.802L 7.70587 10.802L 2.81432 4.37383L 2.81432 16.3025L 2.04491e-06 16.3025L 2.04491e-06 0L 2.61329 0Z" transform="translate(53.8124 0.997681)" fill="white"/>
<path d="M 11.7978 6.96545L 2.68482 6.96545C 2.75144 7.82722 3.1049 8.64287 3.68994 9.2849C 4.0037 9.57493 4.37259 9.80043 4.77519 9.94832C 5.17779 10.0962 5.60608 10.1635 6.0352 10.1464C 6.62972 10.1758 7.21775 10.013 7.71039 9.68252C 8.19005 9.36301 8.58157 8.93025 8.84951 8.42339L 11.6638 8.42339C 11.3258 9.60019 10.5933 10.6284 9.5866 11.3393C 8.53637 12.0939 7.26609 12.4894 5.96819 12.4659C 5.16862 12.5138 4.36835 12.3839 3.62621 12.0857C 2.88408 11.7876 2.21894 11.3287 1.67971 10.7428C 0.543242 9.5174 -0.0587016 7.89813 0.00452218 6.23648C -0.0467355 4.59656 0.554778 3.00224 1.67971 1.79638C 2.22362 1.21223 2.88788 0.750251 3.62767 0.441586C 4.36746 0.132921 5.16558 -0.0152453 5.96819 0.00708182C 6.76693 -0.0333848 7.56491 0.0999357 8.30589 0.397643C 9.04686 0.69535 9.71277 1.1502 10.2567 1.73011C 10.8139 2.32451 11.2437 3.02436 11.52 3.78745C 11.7964 4.55054 11.9137 5.36108 11.8649 6.17021L 11.7978 6.96545ZM 5.90118 2.26027C 5.50812 2.24393 5.11575 2.30591 4.7474 2.44252C 4.37904 2.57913 4.04222 2.78759 3.75694 3.05551C 3.165 3.58533 2.80457 4.32203 2.75183 5.10988L 9.11754 5.10988C 9.02061 4.33425 8.66726 3.61202 8.11243 3.05551C 7.81744 2.78187 7.46936 2.5703 7.08927 2.43361C 6.70918 2.29692 6.30499 2.23795 5.90118 2.26027Z" transform="translate(72.3019 5.09924)" fill="white"/>
<path d="M 9.52049 6.8921L 9.52049 9.87502e-10L 12.3348 9.87502e-10L 12.3348 17.2302L 9.72151 17.2302L 9.72151 15.5735C 8.91742 16.8989 7.57727 17.5616 5.63405 17.5616C 4.8658 17.5951 4.09974 17.4577 3.39232 17.1595C 2.6849 16.8613 2.05417 16.4099 1.5466 15.8386C 0.516685 14.5861 -0.0295566 13.0124 0.00541988 11.3985C -0.0612274 9.77978 0.488756 8.19529 1.5466 6.95837C 2.04578 6.37271 2.67329 5.9072 3.38152 5.59717C 4.08975 5.28714 4.86007 5.14074 5.63405 5.16907C 7.44325 5.03653 8.7164 5.63296 9.52049 6.8921ZM 9.5875 11.1997C 9.60692 10.2034 9.30148 9.22749 8.7164 8.41631C 8.40942 8.06327 8.02898 7.77996 7.60109 7.58574C 7.17319 7.39151 6.70793 7.29097 6.23712 7.29097C 5.76631 7.29097 5.30105 7.39151 4.87316 7.58574C 4.44526 7.77996 4.06483 8.06327 3.75785 8.41631C 3.09417 9.18987 2.7581 10.187 2.81973 11.1997C 2.79007 12.1877 3.12334 13.153 3.75785 13.9167C 4.05762 14.2782 4.43662 14.5675 4.86617 14.7627C 5.29571 14.9579 5.76453 15.0538 6.23712 15.0433C 6.70861 15.0467 7.17509 14.9476 7.60353 14.7529C 8.03197 14.5582 8.4119 14.2728 8.7164 13.9167C 9.33977 13.1505 9.65052 12.1812 9.5875 11.1997L 9.5875 11.1997Z" transform="translate(85.7695 0.0698242)" fill="white"/>
<path d="M -4.08982e-06 7.82344L -4.08982e-06 5.37145L 4.55651 5.37145L 4.55651 17.3001L 1.7422 17.3001L 1.7422 7.82344L -4.08982e-06 7.82344ZM 3.21636 3.38334C 2.98372 3.39268 2.75151 3.35652 2.53303 3.27691C 2.31456 3.19731 2.11412 3.07583 1.94322 2.91945C 1.78609 2.76335 1.66331 2.5768 1.58259 2.37152C 1.50187 2.16624 1.46496 1.94666 1.47417 1.72659C 1.46472 1.49651 1.50129 1.26685 1.58178 1.05078C 1.66227 0.834708 1.7851 0.636478 1.94322 0.467455C 2.11074 0.306251 2.31063 0.181655 2.52996 0.101742C 2.74928 0.0218282 2.98313 -0.0116203 3.21636 0.00356394C 3.43888 -0.00554725 3.6609 0.0309606 3.86847 0.110793C 4.07604 0.190625 4.26467 0.312057 4.4225 0.467455C 4.5855 0.633132 4.71148 0.83083 4.79228 1.04774C 4.87308 1.26465 4.9069 1.49593 4.89155 1.72659C 4.90103 1.94666 4.86419 2.16628 4.78336 2.37153C 4.70253 2.57678 4.57947 2.76319 4.42199 2.91894C 4.2645 3.0747 4.07602 3.1964 3.86848 3.27634C 3.66095 3.35628 3.43888 3.39272 3.21636 3.38334L 3.21636 3.38334Z" transform="translate(100.114 0)" fill="white"/>
<path d="M 4.23294 12.6047C 3.07255 12.6853 1.92408 12.3304 1.01658 11.6107C 0.659704 11.2433 0.385614 10.8053 0.212365 10.3255C 0.0391155 9.84579 -0.0293585 9.33516 0.0114628 8.82732C -0.0134085 8.18463 0.158882 7.54953 0.505697 7.00547C 0.852511 6.4614 1.35763 6.03382 1.95469 5.7789C 2.28973 5.64636 2.62475 5.51381 2.82578 5.44754C 3.16081 5.38127 3.69688 5.315 4.56798 5.18246C 5.43908 5.04992 6.64521 5.11619 8.05237 5.11619L 8.05237 4.45349C 8.05237 3.06182 7.18127 2.26658 5.50608 2.26658C 3.96491 2.26658 3.16082 2.79674 2.9598 3.9896L 0.3465 3.9896C 0.462502 2.90574 0.960689 1.89687 1.75366 1.13998C 2.62476 0.344743 3.8979 0.0133921 5.57309 0.0133921C 6.97373 -0.082895 8.36011 0.342626 9.45953 1.20625C 9.8917 1.62781 10.2286 2.13518 10.4481 2.6949C 10.6675 3.25462 10.7645 3.85399 10.7327 4.45349L 10.7327 12.2071L 8.25339 12.2071L 8.25339 10.948C 7.31529 12.1408 6.04214 12.6047 4.23294 12.6047ZM 8.11938 7.23684C 5.37207 7.23684 3.8979 7.36938 3.42885 7.63446C 3.19466 7.76701 3.00195 7.96085 2.87191 8.19468C 2.74187 8.42851 2.67954 8.69327 2.69176 8.95986C 2.69176 9.95392 3.42885 10.4841 4.769 10.4841C 6.98025 10.4841 8.11938 9.62256 8.11938 7.89954L 8.11938 7.23684L 8.11938 7.23684Z" transform="translate(107.34 4.96045)" fill="white"/>
</g>
<path d="M 2.21125 4.37383C 3.43249 4.37383 4.4225 3.39471 4.4225 2.18691C 4.4225 0.979115 3.43249 0 2.21125 0C 0.990008 0 -4.08982e-06 0.979115 -4.08982e-06 2.18691C -4.08982e-06 3.39471 0.990008 4.37383 2.21125 4.37383Z" transform="translate(125.578 20.5472)" fill="white"/>
<g>
<path d="M 0.871098 4.64306L 0.871098 8.02284L -1.59758e-08 8.02284L -1.59758e-08 0.00414821L 3.21636 0.00414821C 3.94713 -0.0348258 4.66561 0.202032 5.22659 0.66685C 5.4478 0.896054 5.62091 1.16633 5.73592 1.46206C 5.85093 1.7578 5.90556 2.07314 5.89666 2.38987C 5.90189 3.02739 5.66243 3.64315 5.22659 4.1129C 4.82454 4.51052 4.22147 4.64306 3.21636 4.64306L 0.871098 4.64306ZM 0.871098 3.91409L 3.28337 3.91409C 3.74341 3.94625 4.19858 3.80409 4.55651 3.51647C 4.71348 3.36279 4.83167 3.17473 4.90152 2.9675C 4.97136 2.76027 4.9909 2.53969 4.95856 2.3236C 4.96982 2.11889 4.94011 1.91399 4.87111 1.72066C 4.80212 1.52733 4.69521 1.34938 4.55651 1.19701C 4.19348 0.918882 3.74207 0.777897 3.28337 0.799388L 0.871098 0.799388L 0.871098 3.91409Z" transform="translate(0.608154 23.459)" fill="white"/>
<path d="M 2.95092 5.97414C 2.55349 5.97912 2.15907 5.90547 1.79084 5.75752C 1.42261 5.60958 1.088 5.39031 0.80668 5.11263C 0.290001 4.52409 0.0045993 3.77139 0.00258983 2.99198C -0.0139322 2.60325 0.0487355 2.2152 0.186869 1.8509C 0.325003 1.48659 0.535783 1.15347 0.80668 0.871337C 1.06917 0.569574 1.40059 0.334023 1.77349 0.184202C 2.14638 0.0343807 2.55001 -0.025396 2.95092 0.00982513C 3.34835 0.00484353 3.74277 0.0784916 4.111 0.22644C 4.47924 0.374388 4.81385 0.59365 5.09516 0.871337C 5.61184 1.45987 5.89724 2.21257 5.89925 2.99198C 5.91577 3.38071 5.85311 3.76877 5.71497 4.13307C 5.57684 4.49737 5.36606 4.83049 5.09516 5.11263C 4.82897 5.40984 4.49696 5.64222 4.12502 5.79166C 3.75309 5.94109 3.35128 6.00354 2.95092 5.97414ZM 0.739672 2.99198C 0.747307 3.60736 0.986158 4.19791 1.40975 4.64874C 1.61037 4.87143 1.85909 5.04662 2.13748 5.16134C 2.41586 5.27606 2.71678 5.32736 3.01793 5.31144C 3.31734 5.31405 3.61418 5.25668 3.89057 5.14279C 4.16695 5.0289 4.41716 4.86083 4.62611 4.64874C 5.0497 4.19791 5.28855 3.60736 5.29618 2.99198C 5.30524 2.68516 5.25043 2.37977 5.13516 2.09477C 5.01989 1.80977 4.84662 1.55124 4.62611 1.33523C 4.42548 1.11254 4.17677 0.937341 3.89838 0.822624C 3.62 0.707907 3.31908 0.656608 3.01793 0.672527C 2.71852 0.669912 2.42168 0.727281 2.14529 0.841175C 1.8689 0.955069 1.6187 1.12313 1.40975 1.33523C 1.17526 1.54065 0.992554 1.79743 0.876214 2.08508C 0.759874 2.37273 0.713117 2.68329 0.739672 2.99198L 0.739672 2.99198Z" transform="translate(7.10535 25.7067)" fill="white"/>
<path d="M 6.09769 5.83177L 4.4895 0.994053L 2.88132 5.83177L 2.07723 5.83177L -2.55613e-07 1.0112e-06L 0.871098 1.0112e-06L 2.47928 4.90399L 4.08746 1.0112e-06L 4.95856 1.0112e-06L 6.56674 4.90399L 8.17492 1.0112e-06L 9.04602 1.0112e-06L 6.96878 5.83177L 6.09769 5.83177Z" transform="translate(13.6746 25.7825)" fill="white"/>
<path d="M 5.63122 3.17988L 0.739672 3.17988C 0.73701 3.46621 0.795296 3.7499 0.910739 4.0125C 1.02618 4.27509 1.1962 4.51073 1.40975 4.7041C 1.59407 4.88446 1.81444 5.02477 2.05675 5.11606C 2.29905 5.20735 2.55796 5.24761 2.8169 5.23426C 3.2449 5.25841 3.66896 5.14191 4.02304 4.90291C 4.33988 4.68355 4.59382 4.38673 4.76012 4.04139L 5.63122 4.04139C 5.47343 4.59092 5.14533 5.07766 4.69312 5.43307C 4.20185 5.82277 3.57873 6.01239 2.95092 5.96323C 2.55349 5.96821 2.15907 5.89456 1.79084 5.74661C 1.4226 5.59866 1.08799 5.3794 0.806679 5.10172C 0.269589 4.5254 -0.018902 3.76455 0.0025906 2.98107C -0.0139314 2.59234 0.0487363 2.20429 0.18687 1.83998C 0.325004 1.47568 0.535782 1.14256 0.806679 0.860425C 1.07791 0.587922 1.40126 0.371511 1.75788 0.223792C 2.1145 0.0760733 2.49728 4.32712e-07 2.88391 4.32712e-07C 3.27055 4.32712e-07 3.65332 0.0760733 4.00994 0.223792C 4.36657 0.371511 4.68991 0.587922 4.96115 0.860425C 5.48154 1.44677 5.76748 2.20089 5.76524 2.98107L 5.63122 3.17988ZM 2.88391 0.595346C 2.63441 0.576392 2.38383 0.614334 2.15148 0.706249C 1.91914 0.798165 1.71122 0.9416 1.54376 1.12551C 1.17906 1.48238 0.943538 1.94824 0.873688 2.45091L 4.96115 2.45091C 4.91884 1.94022 4.67879 1.4654 4.29107 1.12551C 3.88536 0.815026 3.39566 0.630526 2.88391 0.595346L 2.88391 0.595346Z" transform="translate(23.3884 25.7175)" fill="white"/>
<path d="M 2.88132 5.05601e-07L 2.88132 0.795243L 2.54629 0.795243C 2.31306 0.780059 2.0792 0.813507 1.85988 0.89342C 1.64056 0.973334 1.44066 1.09793 1.27314 1.25913C 1.10927 1.43778 0.983318 1.64714 0.902748 1.8748C 0.822178 2.10247 0.788632 2.34381 0.804091 2.58453L 0.804091 5.89804L 5.11227e-07 5.89804L 5.11227e-07 0.0662696L 0.804091 0.0662696L 0.804091 0.994053C 0.982521 0.70952 1.23782 0.479982 1.54117 0.331351C 1.91714 0.143192 2.32708 0.0305735 2.74731 5.05601e-07L 2.88132 5.05601e-07Z" transform="translate(30.6276 25.6501)" fill="white"/>
<path d="M 5.63122 3.17988L 0.739672 3.17988C 0.73701 3.46621 0.795296 3.7499 0.910739 4.0125C 1.02618 4.27509 1.1962 4.51073 1.40975 4.7041C 1.59407 4.88446 1.81444 5.02477 2.05675 5.11606C 2.29905 5.20735 2.55796 5.24761 2.8169 5.23426C 3.2449 5.25841 3.66896 5.14191 4.02304 4.90291C 4.33988 4.68355 4.59382 4.38673 4.76012 4.04139L 5.63122 4.04139C 5.47343 4.59092 5.14533 5.07766 4.69312 5.43307C 4.20185 5.82277 3.57873 6.01239 2.95092 5.96323C 2.55349 5.96821 2.15907 5.89456 1.79084 5.74661C 1.4226 5.59866 1.08799 5.3794 0.806679 5.10172C 0.269589 4.5254 -0.018902 3.76455 0.0025906 2.98107C -0.0139314 2.59234 0.0487363 2.20429 0.18687 1.83998C 0.325004 1.47568 0.535782 1.14256 0.806679 0.860425C 1.07791 0.587922 1.40126 0.371511 1.75788 0.223792C 2.1145 0.0760733 2.49728 4.32712e-07 2.88391 4.32712e-07C 3.27055 4.32712e-07 3.65332 0.0760733 4.00994 0.223792C 4.36657 0.371511 4.68991 0.587922 4.96115 0.860425C 5.48154 1.44677 5.76748 2.20089 5.76524 2.98107L 5.63122 3.17988ZM 2.7499 0.595346C 2.50039 0.576392 2.24981 0.614334 2.01747 0.706249C 1.78512 0.798165 1.57721 0.9416 1.40975 1.12551C 1.04504 1.48238 0.809523 1.94824 0.739672 2.45091L 4.82713 2.45091C 4.78482 1.94022 4.54477 1.4654 4.15706 1.12551C 3.76729 0.787908 3.26799 0.599795 2.7499 0.595346L 2.7499 0.595346Z" transform="translate(34.1095 25.7175)" fill="white"/>
<path d="M 5.02715 3.7774L 5.02715 5.05601e-07L 5.83124 5.05601e-07L 5.83124 8.61512L 5.02715 8.61512L 5.02715 7.48853C 4.80841 7.87212 4.48518 8.18728 4.09427 8.39816C 3.70335 8.60905 3.26043 8.70718 2.8159 8.68139C 2.42845 8.68621 2.04414 8.61222 1.68681 8.46402C 1.32947 8.31582 1.00675 8.09657 0.738669 7.81988C 0.251236 7.2192 -0.00939097 6.46935 0.00158703 5.69923C -0.0230096 4.92702 0.239195 4.17263 0.738669 3.57859C 1.00263 3.29661 1.32459 3.07383 1.6829 2.92523C 2.0412 2.77662 2.42754 2.70565 2.8159 2.71708C 3.25115 2.62705 3.70431 2.68229 4.10443 2.87415C 4.50455 3.06602 4.82906 3.38367 5.02715 3.7774L 5.02715 3.7774ZM 5.09416 5.69923C 5.12456 5.40148 5.09265 5.10072 5.00043 4.81569C 4.90821 4.53066 4.75763 4.26746 4.5581 4.04248C 4.37238 3.8195 4.1359 3.64319 3.86802 3.528C 3.60014 3.41281 3.30848 3.36202 3.01693 3.37978C 2.72741 3.37714 2.44057 3.43479 2.17505 3.54896C 1.90953 3.66313 1.67127 3.83128 1.47575 4.04248C 1.08202 4.50259 0.889196 5.09853 0.939691 5.69923C 0.900513 6.29861 1.09201 6.89046 1.47575 7.35599C 1.66147 7.57897 1.89795 7.75528 2.16583 7.87046C 2.43371 7.98565 2.72537 8.03645 3.01693 8.01869C 3.30645 8.02132 3.59328 7.96368 3.8588 7.8495C 4.12432 7.73533 4.36258 7.56718 4.5581 7.35599C 4.91332 6.87564 5.10142 6.2943 5.09416 5.69923L 5.09416 5.69923Z" transform="translate(40.8113 22.9991)" fill="white"/>
<path d="M 0.804091 3.7774C 1.02284 3.39381 1.34605 3.07864 1.73697 2.86776C 2.12789 2.65688 2.57081 2.55875 3.01534 2.58453C 3.40279 2.57972 3.78711 2.65371 4.14444 2.80191C 4.50177 2.95011 4.82449 3.16936 5.09257 3.44605C 5.60976 4.03009 5.87444 4.7916 5.82966 5.56669C 5.85425 6.3389 5.59205 7.09329 5.09257 7.68734C 4.84808 7.99276 4.52935 8.23195 4.16611 8.3826C 3.80287 8.53325 3.40697 8.59044 3.01534 8.54885C 2.57081 8.57464 2.12789 8.47651 1.73697 8.26562C 1.34605 8.05474 1.02284 7.73958 0.804091 7.35599L 0.804091 8.48258L -2.04491e-06 8.48258L -2.04491e-06 5.05601e-07L 0.804091 5.05601e-07L 0.804091 3.7774ZM 0.804091 5.69923C 0.764914 6.29861 0.956409 6.89046 1.34015 7.35599C 1.52587 7.57897 1.76235 7.75528 2.03023 7.87046C 2.29811 7.98565 2.58977 8.03645 2.88132 8.01869C 3.17084 8.02132 3.45768 7.96368 3.7232 7.8495C 3.98872 7.73533 4.22698 7.56718 4.4225 7.35599C 4.81623 6.89587 5.00905 6.29993 4.95856 5.69923C 4.99773 5.09986 4.80624 4.50801 4.4225 4.04248C 4.23678 3.8195 4.00029 3.64319 3.73241 3.528C 3.46453 3.41281 3.17288 3.36202 2.88132 3.37978C 2.59181 3.37714 2.30497 3.43479 2.03945 3.54896C 1.77393 3.66313 1.53566 3.83128 1.34015 4.04248C 1.14061 4.26746 0.990044 4.53066 0.89782 4.81569C 0.805595 5.10072 0.773691 5.40148 0.804091 5.69923L 0.804091 5.69923Z" transform="translate(51.735 22.9991)" fill="white"/>
<path d="M 1.54117 8.2175L 2.54629 5.83177L -1.02245e-06 1.0112e-06L 0.871099 1.0112e-06L 2.88132 4.83772L 4.95856 1.0112e-06L 5.82966 1.0112e-06L 2.34526 8.2175L 1.54117 8.2175Z" transform="translate(58.0337 25.7825)" fill="white"/>
</g>
<g>
<path d="M 0.00383623 4.2428C -0.0201072 3.68536 0.0682693 3.12878 0.263831 2.60544C 0.459392 2.0821 0.758232 1.60244 1.14296 1.19437C 1.52337 0.80352 1.9821 0.49553 2.4898 0.290121C 2.9975 0.0847123 3.54297 -0.0135908 4.09129 0.00150875C 5.03521 -0.00787724 5.95515 0.295398 6.70459 0.863023C 7.0785 1.13648 7.39076 1.48393 7.62148 1.88326C 7.85221 2.28259 7.99636 2.72505 8.04474 3.18248L 6.50356 3.18248C 6.38688 2.65018 6.07696 2.17864 5.63246 1.85708C 5.16488 1.52701 4.59797 1.36348 4.02429 1.39318C 3.66208 1.38334 3.30184 1.44906 2.96702 1.58608C 2.63221 1.7231 2.33034 1.92834 2.08107 2.18843C 1.6029 2.79416 1.34317 3.54059 1.34317 4.30907C 1.34317 5.07755 1.6029 5.82398 2.08107 6.42971C 2.32624 6.69502 2.62739 6.90378 2.9632 7.0412C 3.299 7.17863 3.66125 7.24136 4.02429 7.22496C 4.59797 7.25467 5.16488 7.09113 5.63246 6.76107C 6.07696 6.4395 6.38688 5.96796 6.50356 5.43566L 8.04474 5.43566C 7.88614 6.34006 7.41191 7.16082 6.70459 7.75512C 5.94999 8.31305 5.03346 8.6152 4.09129 8.61663C 3.54297 8.63173 2.9975 8.53343 2.4898 8.32802C 1.9821 8.12261 1.52337 7.81462 1.14296 7.42377C 0.394716 6.53011 -0.00890443 5.40301 0.00383623 4.2428Z" transform="translate(68.885 23.2629)" fill="white"/>
<path d="M 3.08259 6.16845C 2.67432 6.17972 2.26796 6.10921 1.88795 5.96116C 1.50795 5.81311 1.16215 5.59057 0.871344 5.30694C 0.302716 4.71884 -0.0100414 3.93366 0.000243828 3.12002C 0.00233571 2.30868 0.313349 1.52787 0.871344 0.933108C 1.14155 0.619006 1.48213 0.371586 1.866 0.210523C 2.24987 0.0494613 2.66644 -0.0208011 3.08259 0.00532524C 3.49744 -0.0100389 3.91061 0.0651202 4.29278 0.225467C 4.67494 0.385813 5.01672 0.627414 5.29384 0.933108C 5.84096 1.53458 6.15027 2.3111 6.16494 3.12002C 6.16285 3.93137 5.85183 4.71217 5.29384 5.30694C 5.02614 5.62031 4.68398 5.86306 4.29805 6.01342C 3.91211 6.16379 3.49447 6.21705 3.08259 6.16845L 3.08259 6.16845ZM 1.40741 3.12002C 1.39195 3.36075 1.42549 3.60209 1.50606 3.82976C 1.58663 4.05742 1.71258 4.26678 1.87646 4.44543C 2.03992 4.61625 2.23751 4.75159 2.45668 4.84285C 2.67586 4.93412 2.91182 4.97932 3.1496 4.97559C 3.38854 4.98824 3.62727 4.9471 3.8478 4.85526C 4.06833 4.76343 4.26492 4.6233 4.42274 4.44543C 4.58662 4.26678 4.71257 4.05742 4.79314 3.82976C 4.87371 3.60209 4.90725 3.36075 4.89179 3.12002C 4.91144 2.6152 4.74473 2.12055 4.42274 1.72835C 4.26897 1.54561 4.07306 1.40207 3.8515 1.30981C 3.62995 1.21755 3.38923 1.17927 3.1496 1.19819C 2.91147 1.19195 2.67474 1.23602 2.4552 1.32744C 2.23566 1.41886 2.03836 1.55554 1.87646 1.72835C 1.6942 1.90824 1.5569 2.12772 1.47547 2.36931C 1.39404 2.6109 1.37074 2.86796 1.40741 3.12002L 1.40741 3.12002Z" transform="translate(77.8678 25.5123)" fill="white"/>
<path d="M -1.02245e-06 4.0437L -1.02245e-06 2.85084L 2.21124 2.85084L 2.21124 8.74888L 0.871099 8.74888L 0.871099 3.97743L -1.02245e-06 3.97743L -1.02245e-06 4.0437ZM 1.54117 1.85679C 1.41671 1.86341 1.2923 1.84312 1.17657 1.79734C 1.06085 1.75156 0.956607 1.68139 0.871099 1.59171C 0.703494 1.41024 0.608244 1.17473 0.603068 0.929006C 0.596375 0.805918 0.616889 0.682868 0.663178 0.568419C 0.709467 0.453969 0.780419 0.350871 0.871099 0.266304C 1.05459 0.100544 1.29271 0.00634431 1.54117 0.00122512C 1.66563 -0.00539451 1.79005 0.0148915 1.90578 0.0606712C 2.0215 0.106451 2.12574 0.176623 2.21124 0.266304C 2.37885 0.447775 2.4741 0.683278 2.47928 0.929006C 2.48597 1.05209 2.46546 1.17515 2.41917 1.2896C 2.37288 1.40404 2.30192 1.50714 2.21124 1.59171C 2.03135 1.76306 1.79092 1.85817 1.54117 1.85679L 1.54117 1.85679Z" transform="translate(84.8369 22.7993)" fill="white"/>
<path d="M 1.13913 0.133492L 1.13913 0.928735C 1.31756 0.644202 1.57286 0.414664 1.87621 0.266033C 2.25705 0.101091 2.66671 0.0110577 3.08234 0.000953869C 3.39258 -0.00799824 3.70138 0.0462079 3.98955 0.160208C 4.27772 0.274208 4.53912 0.44557 4.75753 0.663655C 4.95735 0.901708 5.10759 1.1765 5.19959 1.47221C 5.29159 1.76792 5.32354 2.07871 5.2936 2.38668L 5.2936 6.09781L 3.95344 6.09781L 3.95344 2.51922C 3.96884 2.33971 3.94707 2.15897 3.88947 1.98806C 3.83186 1.81714 3.73963 1.65964 3.61841 1.52517C 3.52387 1.38643 3.39267 1.276 3.23908 1.20589C 3.08548 1.13578 2.91539 1.10868 2.74731 1.12754C 2.55979 1.10907 2.37054 1.13557 2.19558 1.20478C 2.02062 1.274 1.8651 1.3839 1.74219 1.52517C 1.6035 1.67754 1.49659 1.85549 1.4276 2.04882C 1.3586 2.24215 1.32889 2.44705 1.34015 2.65176L 1.34015 6.09781L 4.08982e-06 6.09781L 4.08982e-06 0.199764L 1.20613 0.199764L 1.20613 0.133492L 1.13913 0.133492Z" transform="translate(88.8572 25.4503)" fill="white"/>
<path d="M 3.35038 6.36193L 3.35038 7.5548C 3.11065 7.6202 2.86102 7.64265 2.61329 7.62107C 1.40716 7.62107 0.871102 7.09091 0.871102 5.89804L 0.871102 2.71708L 2.04491e-06 2.71708L 2.04491e-06 1.59048L 0.871102 1.59048L 0.871102 5.05601e-07L 2.21125 5.05601e-07L 2.21125 1.59048L 3.35038 1.59048L 3.35038 2.71708L 2.21125 2.71708L 2.21125 5.69923C 2.20186 5.79166 2.21222 5.88501 2.24166 5.97323C 2.2711 6.06145 2.31896 6.14255 2.38215 6.21129C 2.44533 6.28003 2.52243 6.33486 2.60842 6.37223C 2.69442 6.4096 2.7874 6.42867 2.88133 6.42821L 3.35038 6.36193Z" transform="translate(95.0219 23.9934)" fill="white"/>
<path d="M 3.21636 0.00318201L 3.21636 1.26232L 2.88132 1.26232C 1.87621 1.26232 1.34015 1.79248 1.34015 2.91907L 1.34015 5.9675L 4.08982e-06 5.9675L 4.08982e-06 0.0694537L 1.27314 0.0694537L 1.27314 0.864696C 1.46218 0.583132 1.72248 0.355441 2.02814 0.204292C 2.3338 0.0531436 2.67417 -0.0161941 3.01534 0.00318201L 3.21636 0.00318201Z" transform="translate(99.5785 25.5807)" fill="white"/>
<path d="M 2.14768 6.18447C 1.85658 6.22102 1.5609 6.19234 1.28252 6.10057C 1.00415 6.0088 0.7502 5.85628 0.539495 5.65431C 0.365787 5.47954 0.228941 5.27237 0.136914 5.04483C 0.0448864 4.8173 -0.00047771 4.57394 0.00344251 4.3289C -0.0179291 4.01023 0.0607104 3.6928 0.228617 3.41998C 0.396525 3.14717 0.645504 2.93229 0.941544 2.80469C 1.08748 2.73022 1.24691 2.68517 1.41059 2.67215C 1.54461 2.67215 1.81264 2.60588 2.28169 2.60588C 2.75075 2.60588 3.28681 2.53961 4.02389 2.53961L 4.02389 2.20826C 4.02389 1.47929 3.62184 1.08166 2.75074 1.08166C 2.01366 1.08166 1.54461 1.41302 1.47761 1.94318L 0.137456 1.94318C 0.217235 1.41029 0.477016 0.91979 0.874532 0.551504C 1.14644 0.339647 1.45839 0.183624 1.79208 0.0925852C 2.12577 0.00154634 2.47448 -0.0226744 2.81776 0.0213435C 3.51057 -0.0587415 4.20766 0.131443 4.76097 0.551504C 4.98148 0.767514 5.15475 1.02604 5.27002 1.31104C 5.38529 1.59604 5.4401 1.90143 5.43105 2.20826L 5.43105 6.05193L 4.15791 6.05193L 4.15791 5.38922C 3.91701 5.6777 3.60668 5.9017 3.25544 6.04065C 2.90419 6.1796 2.52329 6.22905 2.14768 6.18447L 2.14768 6.18447ZM 4.0909 3.59993C 3.28443 3.57396 2.47722 3.61831 1.67863 3.73247C 1.54995 3.78746 1.44194 3.88098 1.36982 3.99986C 1.2977 4.11874 1.26508 4.257 1.27658 4.39517C 1.27658 4.85906 1.61162 5.19041 2.28169 5.19041C 3.42082 5.19041 3.95688 4.72652 3.95688 3.86501L 3.95688 3.59993L 4.0909 3.59993Z" transform="translate(103.26 25.4962)" fill="white"/>
<path d="M 0.804086 2.65702L 0.804086 1.99432C 0.766473 1.71649 0.795398 1.4338 0.88851 1.16905C 0.981623 0.904296 1.13632 0.664882 1.34015 0.470106C 1.53093 0.302912 1.75396 0.175625 1.99579 0.0959026C 2.23761 0.0161804 2.49325 -0.0143291 2.74731 0.00621403L 3.21636 0.00621403L 3.21636 1.19908L 2.94834 1.19908C 2.68031 1.19908 2.47928 1.26535 2.41227 1.46416C 2.34527 1.66297 2.27826 1.86178 2.27826 2.19313L 2.27826 2.72329L 3.28337 2.72329L 3.28337 3.84989L 2.27826 3.84989L 2.27826 8.68761L 0.93811 8.68761L 0.93811 3.84989L -2.04491e-06 3.84989L -2.04491e-06 2.72329L 0.804086 2.72329L 0.804086 2.65702L 0.804086 2.65702Z" transform="translate(109.696 22.9269)" fill="white"/>
<path d="M 0.804088 2.78457L 0.804088 2.12187C 0.766476 1.84404 0.79539 1.56135 0.888502 1.2966C 0.981615 1.03185 1.13632 0.792432 1.34015 0.597655C 1.53094 0.430461 1.75395 0.303174 1.99578 0.223452C 2.23761 0.14373 2.49325 0.11322 2.74731 0.133763L 3.21636 0.133763L 3.21636 1.32663L 2.94833 1.32663C 2.6803 1.32663 2.47928 1.3929 2.41228 1.59171C 2.34527 1.79052 2.27825 1.98933 2.27825 2.32068L 2.27825 2.85084L 3.28337 2.85084L 3.28337 3.97743L 2.27825 3.97743L 2.27825 8.81516L 0.938101 8.81516L 0.938101 3.97743L 0 3.97743L 0 2.85084L 0.804088 2.85084L 0.804088 2.78457ZM 3.5514 4.0437L 3.5514 2.85084L 5.76265 2.85084L 5.76265 8.74888L 4.4225 8.74888L 4.4225 3.97743L 3.5514 3.97743L 3.5514 4.0437ZM 5.15958 1.85679C 5.03512 1.86341 4.9107 1.84312 4.79498 1.79734C 4.67926 1.75156 4.57501 1.68139 4.4895 1.59171C 4.3219 1.41024 4.22665 1.17473 4.22148 0.929006C 4.21478 0.805918 4.2353 0.682868 4.28159 0.568419C 4.32788 0.453969 4.39882 0.350871 4.4895 0.266304C 4.67299 0.100544 4.91112 0.00634431 5.15958 0.00122512C 5.28404 -0.00539451 5.40846 0.0148915 5.52419 0.0606712C 5.63991 0.106451 5.74415 0.176623 5.82965 0.266304C 5.99726 0.447775 6.09251 0.683278 6.09769 0.929006C 6.10043 1.05159 6.07805 1.17345 6.03187 1.28724C 5.9857 1.40103 5.91669 1.50439 5.82903 1.59109C 5.74137 1.67779 5.63686 1.74603 5.5218 1.7917C 5.40675 1.83736 5.28352 1.8595 5.15958 1.85679L 5.15958 1.85679Z" transform="translate(113.583 22.7993)" fill="white"/>
<path d="M 0.00946582 3.05825C 0.0115577 2.24691 0.322571 1.4661 0.880566 0.871339C 1.14306 0.569576 1.47447 0.334023 1.84737 0.184201C 2.22026 0.0343802 2.62389 -0.0253965 3.0248 0.00982463C 3.76525 -0.0150414 4.48634 0.246452 5.03503 0.738798C 5.50055 1.15501 5.80796 1.71628 5.90613 2.32928L 4.49897 2.32928C 4.40958 2.03074 4.24868 1.75794 4.02992 1.53404C 3.90801 1.41371 3.76065 1.32158 3.59844 1.26429C 3.43624 1.207 3.26322 1.18596 3.09182 1.20269C 2.86274 1.1907 2.63405 1.23248 2.42442 1.32462C 2.21479 1.41676 2.03018 1.55665 1.88568 1.73285C 1.5647 2.09965 1.39699 2.57355 1.41663 3.05825C 1.40117 3.29898 1.43471 3.54032 1.51528 3.76799C 1.59585 3.99565 1.72181 4.20501 1.88568 4.38366C 2.03994 4.5482 2.22639 4.68004 2.43372 4.77117C 2.64106 4.8623 2.86495 4.91083 3.09182 4.91382C 3.26322 4.93054 3.43624 4.9095 3.59844 4.85221C 3.76065 4.79492 3.90801 4.7028 4.02992 4.58247C 4.27174 4.37668 4.43688 4.0967 4.49897 3.78722L 5.90613 3.78722C 5.82311 4.40519 5.51304 4.97134 5.03503 5.37771C 4.76679 5.62674 4.45049 5.81966 4.10508 5.94491C 3.75966 6.07017 3.39223 6.12519 3.0248 6.10668C 2.62738 6.11166 2.23295 6.03801 1.86472 5.89006C 1.49649 5.74212 1.16188 5.52285 0.880566 5.24517C 0.575112 4.97143 0.337606 4.63171 0.186524 4.25242C 0.0354426 3.87312 -0.0251454 3.46448 0.00946582 3.05825L 0.00946582 3.05825Z" transform="translate(120.609 25.574)" fill="white"/>
</g>
</g>
</g>
</g>
</g>
</svg>
