<svg viewBox="0 0 30 30" xml:space="preserve" xmlns="http://www.w3.org/2000/svg" xmlns:xlink="http://www.w3.org/1999/xlink">
    <circle cx="24" cy="6" r="2"/>
    <circle cx="18" cy="13" r="2"/>
    <circle cx="12" cy="9" r="2"/>
    <circle cx="6" cy="12" r="2"/>
    <polyline points="  6,12 12,9 18,13 24,6 " style="fill:none;stroke-width:2;stroke-linecap:round;stroke-linejoin:round;stroke-miterlimit:10;"/>
    <circle cx="24" cy="20" r="2"/>
    <circle cx="18" cy="24" r="2"/>
    <circle cx="12" cy="18" r="2"/>
    <circle cx="6" cy="25" r="2"/>
    <polyline points="  6,25 12,18 18,24 24,20 " style="fill:none;stroke-width:2;stroke-linecap:round;stroke-linejoin:round;stroke-miterlimit:10;"/>
</svg>