<svg width="14" height="16" viewBox="0 0 14 16" version="1.1" xmlns="http://www.w3.org/2000/svg" xmlns:xlink="http://www.w3.org/1999/xlink">
<g transform="translate(673 -2625)">
<g>
<g>
<use xlink:href="#dasboard0_stroke" transform="translate(-672 2626)"/>
</g>
<g>
<use xlink:href="#dasboard1_stroke" transform="translate(-667.917 2633)"/>
</g>
</g>
</g>
<defs>
<path id="dasboard0_stroke" d="M 0 4.9L -0.312348 4.50957C -0.430955 4.60445 -0.5 4.74811 -0.5 4.9L 0 4.9ZM 6.125 0L 6.43735 -0.390434C 6.25474 -0.536522 5.99526 -0.536522 5.81265 -0.390434L 6.125 0ZM 12.25 4.9L 12.75 4.9C 12.75 4.74811 12.681 4.60445 12.5623 4.50957L 12.25 4.9ZM 0 12.6L -0.5 12.6L 0 12.6ZM 0.312348 5.29043L 6.43735 0.390434L 5.81265 -0.390434L -0.312348 4.50957L 0.312348 5.29043ZM 5.81265 0.390434L 11.9377 5.29043L 12.5623 4.50957L 6.43735 -0.390434L 5.81265 0.390434ZM 11.75 4.9L 11.75 12.6L 12.75 12.6L 12.75 4.9L 11.75 4.9ZM 11.75 12.6C 11.75 12.8432 11.656 13.0736 11.4928 13.2414L 12.2098 13.9385C 12.5572 13.5812 12.75 13.0994 12.75 12.6L 11.75 12.6ZM 11.4928 13.2414C 11.3302 13.4087 11.1127 13.5 10.8889 13.5L 10.8889 14.5C 11.3871 14.5 11.862 14.2963 12.2098 13.9385L 11.4928 13.2414ZM 10.8889 13.5L 1.36111 13.5L 1.36111 14.5L 10.8889 14.5L 10.8889 13.5ZM 1.36111 13.5C 1.13735 13.5 0.919803 13.4087 0.757158 13.2414L 0.0401627 13.9385C 0.388033 14.2963 0.862896 14.5 1.36111 14.5L 1.36111 13.5ZM 0.757158 13.2414C 0.594047 13.0736 0.5 12.8432 0.5 12.6L -0.5 12.6C -0.5 13.0994 -0.307243 13.5812 0.0401627 13.9385L 0.757158 13.2414ZM 0.5 12.6L 0.5 4.9L -0.5 4.9L -0.5 12.6L 0.5 12.6Z"/>
<path id="dasboard1_stroke" d="M -0.5 7C -0.5 7.27614 -0.276142 7.5 0 7.5C 0.276142 7.5 0.5 7.27614 0.5 7L -0.5 7ZM 0 0L 0 -0.5C -0.276142 -0.5 -0.5 -0.276142 -0.5 1.11022e-16L 0 0ZM 4.08333 0L 4.58333 0C 4.58333 -0.276142 4.35948 -0.5 4.08333 -0.5L 4.08333 0ZM 3.58333 7C 3.58333 7.27614 3.80719 7.5 4.08333 7.5C 4.35948 7.5 4.58333 7.27614 4.58333 7L 3.58333 7ZM 0.5 7L 0.5 0L -0.5 0L -0.5 7L 0.5 7ZM 0 0.5L 4.08333 0.5L 4.08333 -0.5L 0 -0.5L 0 0.5ZM 3.58333 0L 3.58333 7L 4.58333 7L 4.58333 0L 3.58333 0Z"/>
</defs>
</svg>
